{
	"_type": "export",
	"__export_format": 3,
	"__export_date": "2019-02-07T01:14:32.753Z",
	"__export_source": "insomnia.desktop.app:v6.0.2",
	"resources": [
		{
			"_id": "wrk_90d09cd4e570488ab41c52715958b1a4",
			"created": 1549193979352,
			"description": "",
			"modified": 1549193979352,
			"name": "App-Template",
			"parentId": null,
			"_type": "workspace"
		},
		{
			"_id": "env_9e10a9c58d4f48ffa7e2143d1ff75d18",
			"color": null,
			"created": 1549193979371,
			"data": {
				"local_docker": {
					"base_url": "http://localhost:8000",
					"gql": "{{ local_docker.base_url  }}{{ local_docker.gql_single_endpoint }}",
					"gql_batch_endpoint": "/gql/batch",
					"gql_single_endpoint": "/gql"
				}
			},
			"isPrivate": false,
			"metaSortKey": 1549193979371,
			"modified": 1549195716720,
			"name": "New Environment",
			"parentId": "wrk_90d09cd4e570488ab41c52715958b1a4",
			"_type": "environment"
		},
		{
			"_id": "jar_779e79cbd39542638c13b5bc705db309",
			"cookies": [],
			"created": 1549193979375,
			"modified": 1549193979375,
			"name": "Default Jar",
			"parentId": "wrk_90d09cd4e570488ab41c52715958b1a4",
			"_type": "cookie_jar"
		},
		{
			"_id": "fld_782329b28bb8487583c3d1da4dd78a2f",
			"created": 1549194055090,
			"description": "",
			"environment": {},
			"metaSortKey": -1548865578284,
			"modified": 1549194055112,
			"name": "App-Template",
			"parentId": "wrk_90d09cd4e570488ab41c52715958b1a4",
			"_type": "request_group"
		},
		{
			"_id": "fld_c22baeb10c174156b559cfdf413d7f1f",
			"created": 1549499311194,
			"description": "",
			"environment": {},
			"metaSortKey": -1548865588821,
			"modified": 1549499317892,
			"name": "Teacher",
			"parentId": "fld_782329b28bb8487583c3d1da4dd78a2f",
			"_type": "request_group"
		},
		{
			"_id": "fld_a3477268da0c47f0a8f0474bebf66890",
			"created": 1549500625417,
			"description": "",
			"environment": {},
			"metaSortKey": -1548865583552.5,
			"modified": 1549500634227,
			"name": "Course",
			"parentId": "fld_782329b28bb8487583c3d1da4dd78a2f",
			"_type": "request_group"
		},
		{
			"_id": "fld_57396c09314940ef9e28ce03cd407a70",
			"created": 1549500638893,
			"description": "",
			"environment": {},
			"metaSortKey": -1548865586186.75,
			"modified": 1549500658450,
			"name": "Student",
			"parentId": "fld_782329b28bb8487583c3d1da4dd78a2f",
			"_type": "request_group"
		},
		{
			"_id": "req_0e75ea509de44014bc94cfe588edf6a9",
			"authentication": {},
			"body": {
				"mimeType": "application/graphql",
				"text": "{\"query\":\"query doPinger {\\n  ping\\n}\\n\",\"operationName\":\"doPinger\"}"
			},
			"created": 1549194055103,
			"description": "",
			"headers": [
				{
					"id": "pair_8aef079a1e264b56a1db756b2a265981",
					"name": "Content-Type",
					"value": "application/json"
				}
			],
			"isPrivate": false,
			"metaSortKey": -1548865588846,
			"method": "POST",
			"modified": 1549235564881,
			"name": "Ping",
			"parameters": [],
			"parentId": "fld_782329b28bb8487583c3d1da4dd78a2f",
			"settingDisableRenderRequestBody": false,
			"settingEncodeUrl": true,
			"settingMaxTimelineDataSize": 1000,
			"settingRebuildPath": true,
			"settingSendCookies": true,
			"settingStoreCookies": true,
			"url": "{{ local_docker.base_url  }}/gql",
			"_type": "request"
		},
		{
			"_id": "req_e65186088a5d40a796f63fe5c9530bed",
			"authentication": {},
			"body": {
				"mimeType": "application/graphql",
				"text": "{\"query\":\"query getItem($id: ID!){\\n  teacher(id: $id) {\\n\\t\\tname\\n\\t\\tcourses {\\n\\t\\t\\tstudents{\\n\\t\\t\\t\\tname\\n\\t\\t\\t}\\n\\t\\t}\\n  }\\n}\\n\",\"variables\":{\"id\":\"cd0f1c00-c984-4ba9-8be8-953aa8b6b0a7\"},\"operationName\":\"getItem\"}"
			},
			"created": 1549194055094,
			"description": "",
			"headers": [
				{
					"id": "pair_8aef079a1e264b56a1db756b2a265981",
					"name": "Content-Type",
					"value": "application/json"
				}
			],
			"isPrivate": false,
			"metaSortKey": -1548865588808.5,
			"method": "POST",
			"modified": 1549501680045,
			"name": "One",
			"parameters": [],
			"parentId": "fld_c22baeb10c174156b559cfdf413d7f1f",
			"settingDisableRenderRequestBody": false,
			"settingEncodeUrl": true,
			"settingMaxTimelineDataSize": 1000,
			"settingRebuildPath": true,
			"settingSendCookies": true,
			"settingStoreCookies": true,
			"url": "{{ local_docker.gql  }}",
			"_type": "request"
		},
		{
			"_id": "req_bb9c604eabbf4094b0a4f546f20953df",
			"authentication": {},
			"body": {
				"mimeType": "application/graphql",
				"text": "{\"query\":\"query allItems ($limit: Int!) {\\n  teacher_collection (limit: $limit){\\n    teachers {\\n      id\\n\\t\\t\\tname\\n\\t\\t\\tcourses {\\n\\t\\t\\t\\tid\\n\\t\\t\\t\\tname\\n\\t\\t\\t}\\n    }\\n  }\\n}\",\"variables\":{\"limit\":20},\"operationName\":\"allItems\"}"
			},
			"created": 1549194055099,
			"description": "",
			"headers": [
				{
					"id": "pair_8aef079a1e264b56a1db756b2a265981",
					"name": "Content-Type",
					"value": "application/json"
				}
			],
			"isPrivate": false,
			"metaSortKey": -1548865588758.5,
			"method": "POST",
			"modified": 1549501631238,
			"name": "Collection",
			"parameters": [],
			"parentId": "fld_c22baeb10c174156b559cfdf413d7f1f",
			"settingDisableRenderRequestBody": false,
			"settingEncodeUrl": true,
			"settingMaxTimelineDataSize": 1000,
			"settingRebuildPath": true,
			"settingSendCookies": true,
			"settingStoreCookies": true,
			"url": "{{ local_docker.gql  }}",
			"_type": "request"
		},
		{
			"_id": "req_c3fe09ba28a64b28a48fcb9a3dc10848",
			"authentication": {},
			"body": {
				"mimeType": "application/graphql",
				"text": "{\"query\":\"mutation makeANewItem($input: CreateTeacherInput!) {\\n  CreateTeacher(input: $input) {\\n    teacher {\\n      id\\n\\t\\t\\tname\\n\\t\\t\\tcourses {\\n\\t\\t\\t\\tid\\n\\t\\t\\t\\tname\\n\\t\\t\\t}\\n    }\\n  }\\n}\",\"variables\":{\"input\":{\"name\":\"Mr Baker\",\"course_ids\":[]}},\"operationName\":\"makeANewItem\"}"
			},
			"created": 1549206328618,
			"description": "",
			"headers": [
				{
					"id": "pair_8aef079a1e264b56a1db756b2a265981",
					"name": "Content-Type",
					"value": "application/json"
				}
			],
			"isPrivate": false,
			"metaSortKey": -1548865588708.5,
			"method": "POST",
			"modified": 1549501623864,
			"name": "[Create]",
			"parameters": [],
			"parentId": "fld_c22baeb10c174156b559cfdf413d7f1f",
			"settingDisableRenderRequestBody": false,
			"settingEncodeUrl": true,
			"settingMaxTimelineDataSize": 1000,
			"settingRebuildPath": true,
			"settingSendCookies": true,
			"settingStoreCookies": true,
			"url": "{{ local_docker.gql  }}",
			"_type": "request"
		},
		{
			"_id": "req_d03f912e90d94345bf90a91b8ea66cb4",
			"authentication": {},
			"body": {
				"mimeType": "application/graphql",
				"text": "{\"query\":\"mutation editItem($id: ID!, $input: EditTeacherInput!) {\\n  EditTeacher(id: $id, input: $input) {\\n    teacher {\\n      id\\n\\t\\t\\tname\\n\\t\\t\\tcourses {\\n\\t\\t\\t\\tid\\n\\t\\t\\t\\tname\\n\\t\\t\\t}\\n    }\\n  }\\n}\",\"variables\":{\"id\":\"2d67482b-f9bd-4818-bb0b-7a0b030fab8f\",\"input\":{\"name\":\"Mrs Updated\",\"course_ids\":[]}},\"operationName\":\"editItem\"}"
			},
			"created": 1549223323177,
			"description": "",
			"headers": [
				{
					"id": "pair_8aef079a1e264b56a1db756b2a265981",
					"name": "Content-Type",
					"value": "application/json"
				}
			],
			"isPrivate": false,
			"metaSortKey": -1548865588658.5,
			"method": "POST",
			"modified": 1549500563302,
			"name": "[Edit]",
			"parameters": [],
			"parentId": "fld_c22baeb10c174156b559cfdf413d7f1f",
			"settingDisableRenderRequestBody": false,
			"settingEncodeUrl": true,
			"settingMaxTimelineDataSize": 1000,
			"settingRebuildPath": true,
			"settingSendCookies": true,
			"settingStoreCookies": true,
			"url": "{{ local_docker.gql  }}",
			"_type": "request"
		},
		{
			"_id": "req_632aca852d69443b949cfc4c35e38b5e",
			"authentication": {},
			"body": {
				"mimeType": "application/graphql",
				"text": "{\"query\":\"mutation deleteItems($ids: [ID]!){\\n  DeleteTeacher(ids: $ids) {\\n\\t\\tids\\n  }\\n}\\n\",\"variables\":{\"ids\":[\"2d67482b-f9bd-4818-bb0b-7a0b030fab8f\"]},\"operationName\":\"deleteItems\"}"
			},
			"created": 1549224027313,
			"description": "",
			"headers": [
				{
					"id": "pair_8aef079a1e264b56a1db756b2a265981",
					"name": "Content-Type",
					"value": "application/json"
				}
			],
			"isPrivate": false,
			"metaSortKey": -1548865588608.5,
			"method": "POST",
			"modified": 1549500599000,
			"name": "[Delete]",
			"parameters": [],
			"parentId": "fld_c22baeb10c174156b559cfdf413d7f1f",
			"settingDisableRenderRequestBody": false,
			"settingEncodeUrl": true,
			"settingMaxTimelineDataSize": 1000,
			"settingRebuildPath": true,
			"settingSendCookies": true,
			"settingStoreCookies": true,
			"url": "{{ local_docker.gql  }}",
			"_type": "request"
		},
		{
			"_id": "req_405e24c4a68d4146931889639c93a7d8",
			"authentication": {},
			"body": {
				"mimeType": "application/graphql",
				"text": "{\"query\":\"query getItem($id: ID!){\\n  course(id: $id) {\\n      id\\n\\t\\t\\tname\\n  }\\n}\\n\",\"variables\":{\"id\":\"{% response 'body', 'req_b6c1b75fe0d94c9ebbd002e07d938772', '$.data.CreateCourse.course.id' %}\"},\"operationName\":\"getItem\"}"
			},
			"created": 1549500625420,
			"description": "",
			"headers": [
				{
					"id": "pair_8aef079a1e264b56a1db756b2a265981",
					"name": "Content-Type",
					"value": "application/json"
				}
			],
			"isPrivate": false,
			"metaSortKey": -1548865588808.5,
			"method": "POST",
			"modified": 1549501552050,
			"name": "One",
			"parameters": [],
			"parentId": "fld_a3477268da0c47f0a8f0474bebf66890",
			"settingDisableRenderRequestBody": false,
			"settingEncodeUrl": true,
			"settingMaxTimelineDataSize": 1000,
			"settingRebuildPath": true,
			"settingSendCookies": true,
			"settingStoreCookies": true,
			"url": "{{ local_docker.gql  }}",
			"_type": "request"
		},
		{
			"_id": "req_aae5be2583a845dba6dc199b874a464a",
			"authentication": {},
			"body": {
				"mimeType": "application/graphql",
				"text": "{\"query\":\"query allItems ($limit: Int!) {\\n  course_collection (limit: $limit){\\n    courses {\\n      id\\n\\t\\t\\tname\\n    }\\n  }\\n}\",\"variables\":{\"limit\":20},\"operationName\":\"allItems\"}"
			},
			"created": 1549500625424,
			"description": "",
			"headers": [
				{
					"id": "pair_8aef079a1e264b56a1db756b2a265981",
					"name": "Content-Type",
					"value": "application/json"
				}
			],
			"isPrivate": false,
			"metaSortKey": -1548865588758.5,
			"method": "POST",
			"modified": 1549501550400,
			"name": "Collection",
			"parameters": [],
			"parentId": "fld_a3477268da0c47f0a8f0474bebf66890",
			"settingDisableRenderRequestBody": false,
			"settingEncodeUrl": true,
			"settingMaxTimelineDataSize": 1000,
			"settingRebuildPath": true,
			"settingSendCookies": true,
			"settingStoreCookies": true,
			"url": "{{ local_docker.gql  }}",
			"_type": "request"
		},
		{
			"_id": "req_b6c1b75fe0d94c9ebbd002e07d938772",
			"authentication": {},
			"body": {
				"mimeType": "application/graphql",
				"text": "{\"query\":\"mutation makeANewItem($input: CreateCourseInput!) {\\n  CreateCourse(input: $input) {\\n    course {\\n      id\\n\\t\\t\\tname\\n\\t\\t\\tteacher {\\n\\t\\t\\t\\tname\\n\\t\\t\\t}\\n\\t\\t\\tstudents {\\n\\t\\t\\t\\tname\\n\\t\\t\\t}\\n    }\\n  }\\n}\",\"variables\":{\"input\":{\"name\":\"CSC 101\",\"student_ids\":[\"{% response 'body', 'req_1dffd903c0dc4f2986043bdc6d0b031d', '$.data.CreateStudent.student.id' %}\"],\"teacher_id\":\"{% response 'body', 'req_c3fe09ba28a64b28a48fcb9a3dc10848', '$.data.CreateTeacher.teacher.id' %}\"}},\"operationName\":\"makeANewItem\"}"
			},
			"created": 1549500625429,
			"description": "",
			"headers": [
				{
					"id": "pair_8aef079a1e264b56a1db756b2a265981",
					"name": "Content-Type",
					"value": "application/json"
				}
			],
			"isPrivate": false,
			"metaSortKey": -1548865588708.5,
			"method": "POST",
			"modified": 1549501547670,
			"name": "[Create]",
			"parameters": [],
			"parentId": "fld_a3477268da0c47f0a8f0474bebf66890",
			"settingDisableRenderRequestBody": false,
			"settingEncodeUrl": true,
			"settingMaxTimelineDataSize": 1000,
			"settingRebuildPath": true,
			"settingSendCookies": true,
			"settingStoreCookies": true,
			"url": "{{ local_docker.gql  }}",
			"_type": "request"
		},
		{
			"_id": "req_32d82f52fad94d5b8fc89f744c2ebe5f",
			"authentication": {},
			"body": {
				"mimeType": "application/graphql",
				"text": "{\"query\":\"mutation editItem($id: ID!, $input: EditCourseInput!) {\\n  EditCourse(id: $id, input: $input) {\\n    course {\\n      id\\n\\t\\t\\tname\\n    }\\n  }\\n}\",\"variables\":{\"id\":\"{% response 'body', 'req_b6c1b75fe0d94c9ebbd002e07d938772', '$.data.CreateCourse.course.id' %}\",\"input\":{\"name\":\"New Updated Course Code\",\"student_ids\":[],\"teacher_id\":\"{% response 'body', 'req_c3fe09ba28a64b28a48fcb9a3dc10848', '$.data.CreateTeacher.teacher.id' %}\"}},\"operationName\":\"editItem\"}"
			},
			"created": 1549500625435,
			"description": "",
			"headers": [
				{
					"id": "pair_8aef079a1e264b56a1db756b2a265981",
					"name": "Content-Type",
					"value": "application/json"
				}
			],
			"isPrivate": false,
			"metaSortKey": -1548865588658.5,
			"method": "POST",
			"modified": 1549501545292,
			"name": "[Edit]",
			"parameters": [],
			"parentId": "fld_a3477268da0c47f0a8f0474bebf66890",
			"settingDisableRenderRequestBody": false,
			"settingEncodeUrl": true,
			"settingMaxTimelineDataSize": 1000,
			"settingRebuildPath": true,
			"settingSendCookies": true,
			"settingStoreCookies": true,
			"url": "{{ local_docker.gql  }}",
			"_type": "request"
		},
		{
			"_id": "req_fa04ede2c40647428ec96d76a83b4625",
			"authentication": {},
			"body": {
				"mimeType": "application/graphql",
				"text": "{\"query\":\"mutation deleteItems($ids: [ID]!){\\n  DeleteCourse(ids: $ids) {\\n\\t\\tids\\n  }\\n}\",\"variables\":{\"ids\":[\"{% response 'body', 'req_b6c1b75fe0d94c9ebbd002e07d938772', '$.data.CreateCourse.course.id' %}\"]},\"operationName\":\"deleteItems\"}"
			},
			"created": 1549500625444,
			"description": "",
			"headers": [
				{
					"id": "pair_8aef079a1e264b56a1db756b2a265981",
					"name": "Content-Type",
					"value": "application/json"
				}
			],
			"isPrivate": false,
			"metaSortKey": -1548865588608.5,
			"method": "POST",
			"modified": 1549501543353,
			"name": "[Delete]",
			"parameters": [],
			"parentId": "fld_a3477268da0c47f0a8f0474bebf66890",
			"settingDisableRenderRequestBody": false,
			"settingEncodeUrl": true,
			"settingMaxTimelineDataSize": 1000,
			"settingRebuildPath": true,
			"settingSendCookies": true,
			"settingStoreCookies": true,
			"url": "{{ local_docker.gql  }}",
			"_type": "request"
		},
		{
			"_id": "req_24bf1b7065fa4b5f88905065ff7f61cf",
			"authentication": {},
			"body": {
				"mimeType": "application/graphql",
				"text": "{\"query\":\"query getItem($id: ID!){\\n  student(id: $id) {\\n      id\\n\\t\\t\\tname\\n\\t\\t\\tcourses {\\n\\t\\t\\t\\tid\\n\\t\\t\\t\\tname\\n\\t\\t\\t}\\n  }\\n}\\n\",\"variables\":{\"id\":\"{% response 'body', 'req_1dffd903c0dc4f2986043bdc6d0b031d', '$.data.CreateStudent.student.id' %}\"},\"operationName\":\"getItem\"}"
			},
			"created": 1549500638895,
			"description": "",
			"headers": [
				{
					"id": "pair_8aef079a1e264b56a1db756b2a265981",
					"name": "Content-Type",
					"value": "application/json"
				}
			],
			"isPrivate": false,
			"metaSortKey": -1548865588808.5,
			"method": "POST",
			"modified": 1549501558608,
			"name": "One",
			"parameters": [],
			"parentId": "fld_57396c09314940ef9e28ce03cd407a70",
			"settingDisableRenderRequestBody": false,
			"settingEncodeUrl": true,
			"settingMaxTimelineDataSize": 1000,
			"settingRebuildPath": true,
			"settingSendCookies": true,
			"settingStoreCookies": true,
			"url": "{{ local_docker.gql  }}",
			"_type": "request"
		},
		{
			"_id": "req_2bdca2ec804c470a8c438d8607545e54",
			"authentication": {},
			"body": {
				"mimeType": "application/graphql",
				"text": "{\"query\":\"query allItems ($limit: Int!) {\\n  student_collection (limit: $limit){\\n    students {\\n      id\\n\\t\\t\\tname\\n\\t\\t\\tcourses {\\n\\t\\t\\t\\tid\\n\\t\\t\\t\\tname\\n\\t\\t\\t}\\n    }\\n  }\\n}\",\"variables\":{\"limit\":20},\"operationName\":\"allItems\"}"
			},
			"created": 1549500638900,
			"description": "",
			"headers": [
				{
					"id": "pair_8aef079a1e264b56a1db756b2a265981",
					"name": "Content-Type",
					"value": "application/json"
				}
			],
			"isPrivate": false,
			"metaSortKey": -1548865588758.5,
			"method": "POST",
			"modified": 1549501566224,
			"name": "Collection",
			"parameters": [],
			"parentId": "fld_57396c09314940ef9e28ce03cd407a70",
			"settingDisableRenderRequestBody": false,
			"settingEncodeUrl": true,
			"settingMaxTimelineDataSize": 1000,
			"settingRebuildPath": true,
			"settingSendCookies": true,
			"settingStoreCookies": true,
			"url": "{{ local_docker.gql  }}",
			"_type": "request"
		},
		{
			"_id": "req_1dffd903c0dc4f2986043bdc6d0b031d",
			"authentication": {},
			"body": {
				"mimeType": "application/graphql",
				"text": "{\"query\":\"mutation makeANewItem($input: CreateStudentInput!) {\\n  CreateStudent(input: $input) {\\n    student {\\n      id\\n\\t\\t\\tname\\n\\t\\t\\tcourses {\\n\\t\\t\\t\\tid\\n\\t\\t\\t\\tname\\n\\t\\t\\t}\\n    }\\n  }\\n}\",\"variables\":{\"input\":{\"name\":\"Little Johnny\",\"course_ids\":[]}},\"operationName\":\"makeANewItem\"}"
			},
			"created": 1549500638903,
			"description": "",
			"headers": [
				{
					"id": "pair_8aef079a1e264b56a1db756b2a265981",
					"name": "Content-Type",
					"value": "application/json"
				}
			],
			"isPrivate": false,
			"metaSortKey": -1548865588708.5,
			"method": "POST",
			"modified": 1549501556210,
			"name": "[Create]",
			"parameters": [],
			"parentId": "fld_57396c09314940ef9e28ce03cd407a70",
			"settingDisableRenderRequestBody": false,
			"settingEncodeUrl": true,
			"settingMaxTimelineDataSize": 1000,
			"settingRebuildPath": true,
			"settingSendCookies": true,
			"settingStoreCookies": true,
			"url": "{{ local_docker.gql  }}",
			"_type": "request"
		},
		{
			"_id": "req_786b4c683d7743daac79ad720adf1449",
			"authentication": {},
			"body": {
				"mimeType": "application/graphql",
				"text": "{\"query\":\"mutation editItem($id: ID!, $input: EditStudentInput!) {\\n  EditStudent(id: $id, input: $input) {\\n    student {\\n      id\\n\\t\\t\\tname\\n\\t\\t\\tcourses {\\n\\t\\t\\t\\tid\\n\\t\\t\\t\\tname\\n\\t\\t\\t}\\n    }\\n  }\\n}\",\"variables\":{\"id\":\"{% response 'body', 'req_1dffd903c0dc4f2986043bdc6d0b031d', '$.data.CreateStudent.student.id' %}\",\"input\":{\"name\":\"Little Updated Johnny\",\"course_ids\":[]}},\"operationName\":\"editItem\"}"
			},
			"created": 1549500638911,
			"description": "",
			"headers": [
				{
					"id": "pair_8aef079a1e264b56a1db756b2a265981",
					"name": "Content-Type",
					"value": "application/json"
				}
			],
			"isPrivate": false,
			"metaSortKey": -1548865588658.5,
			"method": "POST",
			"modified": 1549501554894,
			"name": "[Edit]",
			"parameters": [],
			"parentId": "fld_57396c09314940ef9e28ce03cd407a70",
			"settingDisableRenderRequestBody": false,
			"settingEncodeUrl": true,
			"settingMaxTimelineDataSize": 1000,
			"settingRebuildPath": true,
			"settingSendCookies": true,
			"settingStoreCookies": true,
			"url": "{{ local_docker.gql  }}",
			"_type": "request"
		},
		{
			"_id": "req_57dd9156332a477b9af2c4e3868059cc",
			"authentication": {},
			"body": {
				"mimeType": "application/graphql",
				"text": "{\"query\":\"mutation deleteItems($ids: [ID]!){\\n  DeleteStudent(ids: $ids) {\\n\\t\\tids\\n  }\\n}\\n\",\"variables\":{\"ids\":[\"{% response 'body', 'req_1dffd903c0dc4f2986043bdc6d0b031d', '$.data.CreateStudent.student.id' %}\"]},\"operationName\":\"deleteItems\"}"
			},
			"created": 1549500638921,
			"description": "",
			"headers": [
				{
					"id": "pair_8aef079a1e264b56a1db756b2a265981",
					"name": "Content-Type",
					"value": "application/json"
				}
			],
			"isPrivate": false,
			"metaSortKey": -1548865588608.5,
			"method": "POST",
			"modified": 1549501554012,
			"name": "[Delete]",
			"parameters": [],
			"parentId": "fld_57396c09314940ef9e28ce03cd407a70",
			"settingDisableRenderRequestBody": false,
			"settingEncodeUrl": true,
			"settingMaxTimelineDataSize": 1000,
			"settingRebuildPath": true,
			"settingSendCookies": true,
			"settingStoreCookies": true,
			"url": "{{ local_docker.gql  }}",
			"_type": "request"
		}
	]
}